%YAML 1.1
%TAG !u! tag:unity3d.com,2011:
--- !u!1001 &3423209036288405784
PrefabInstance:
  m_ObjectHideFlags: 0
  serializedVersion: 2
  m_Modification:
    m_TransformParent: {fileID: 0}
    m_Modifications:
    - target: {fileID: 100066, guid: 6cd1dde25eaec77439aa711c13cd153e, type: 3}
      propertyPath: m_Name
      value: Ms_Holster_01
      objectReference: {fileID: 0}
    - target: {fileID: 400066, guid: 6cd1dde25eaec77439aa711c13cd153e, type: 3}
      propertyPath: m_LocalPosition.x
      value: 0
      objectReference: {fileID: 0}
    - target: {fileID: 400066, guid: 6cd1dde25eaec77439aa711c13cd153e, type: 3}
      propertyPath: m_LocalPosition.y
      value: 0
      objectReference: {fileID: 0}
    - target: {fileID: 400066, guid: 6cd1dde25eaec77439aa711c13cd153e, type: 3}
      propertyPath: m_LocalPosition.z
      value: 0
      objectReference: {fileID: 0}
    - target: {fileID: 400066, guid: 6cd1dde25eaec77439aa711c13cd153e, type: 3}
      propertyPath: m_LocalRotation.x
      value: 0
      objectReference: {fileID: 0}
    - target: {fileID: 400066, guid: 6cd1dde25eaec77439aa711c13cd153e, type: 3}
      propertyPath: m_LocalRotation.y
      value: 0
      objectReference: {fileID: 0}
    - target: {fileID: 400066, guid: 6cd1dde25eaec77439aa711c13cd153e, type: 3}
      propertyPath: m_LocalRotation.z
      value: 0
      objectReference: {fileID: 0}
    - target: {fileID: 400066, guid: 6cd1dde25eaec77439aa711c13cd153e, type: 3}
      propertyPath: m_LocalRotation.w
      value: 1
      objectReference: {fileID: 0}
    - target: {fileID: 400066, guid: 6cd1dde25eaec77439aa711c13cd153e, type: 3}
      propertyPath: m_RootOrder
      value: 0
      objectReference: {fileID: 0}
    - target: {fileID: 400066, guid: 6cd1dde25eaec77439aa711c13cd153e, type: 3}
      propertyPath: m_LocalEulerAnglesHint.x
      value: 0
      objectReference: {fileID: 0}
    - target: {fileID: 400066, guid: 6cd1dde25eaec77439aa711c13cd153e, type: 3}
      propertyPath: m_LocalEulerAnglesHint.y
      value: 0
      objectReference: {fileID: 0}
    - target: {fileID: 400066, guid: 6cd1dde25eaec77439aa711c13cd153e, type: 3}
      propertyPath: m_LocalEulerAnglesHint.z
      value: 0
      objectReference: {fileID: 0}
    - target: {fileID: 13700000, guid: 6cd1dde25eaec77439aa711c13cd153e, type: 3}
      propertyPath: m_Materials.Array.data[0]
      value: 
      objectReference: {fileID: 2100000, guid: 9d538860fdbf94e40af31317fcd233a5, type: 2}
    m_RemovedComponents: []
  m_SourcePrefab: {fileID: 100100000, guid: 6cd1dde25eaec77439aa711c13cd153e, type: 3}
